﻿BDFPF NATIONAL CHAMPIONSHIP POWERLIFTING UNEQUIPPED 2018
open                                                       age                                                         BW      SQ           BE      DL      TOT     Points
cat                                                        cat
                                                           1     - 80 KG Wuyts             Helen       BEL   26   SR   77,9         120     72,5    167,5   360     252,76
1                                                                60 KG Goossens            Chesney     BEL   25   SR   59,1         105     115     137,5   357,5   295,19
out                                                        out   60 KG Gillon              Miro        BEL   16   T2   57,2         110     0       150     0       0,00
1                                                          1     67,5 KG Sanders           Brian       BEL   19   T3   61,8         110     97,5    145     352,5   278,09
2                                                          1     67,5 KG Van Den Broecke   Daniel      BEL   21   JR   60,3         120     77,5    140     337,5   272,94
3                                                          1     67,5 KG Lormans           Matthias    BEL   17   T2   63,1         110     90      142,5   342,5   264,72
1                                                                75 KG Sudarminto          Indra       BEL   27   SR   74,7         265     160     280     705     469,95
2                                                          1     75 KG D Heere             Jens        BEL   20   JR   72,1         122,5   110     160     392,5   269,22
3                                                          1     75 KG Csizi Kiss          Bodi        BEL   16   T2   68,0         85      70      112,5   267,5   192,89
                                                                 75 KG Masudi              Jayda       BEL   16   T2   71,10        175     -       -       -
1                                                          1     82,5 KG Brughmans         Nick        BEL   25   SR   79,9         150     82,5    185     417,5   264,49
guest                                                      1     90 KG Pütz                David       GER   41   M1   87,6         135     120     175     430     255,94
out                                                        out   90 KG Theyssens           Martin      BEL   78   M8   87,8         70      0       110     0       0,00
guest                                                            100 KG Bandula            Paul        ROU   22   JR   99,4         250     170     320     740     411,07
guest                                                            100 KG Mihai              Emmanuel    ROU   22   JR   99,7         200     150     290     640     355,07
1                                                          1     100 KG Vandewiele         Marc        BEL   43   M1   98,2         215     125     287,5   627,5   350,52
guest                                                            100 KG Lapujan            Sebastian   ROU   20   JR   98,9         190     147,5   232,5   570     317,38
2                                                          1     100 KG Dequidt            Ben         BEL   23   JR   91,1         147,5   140     227,5   515     299,32
3                                                          1     100 KG Verbeke            Beny        BEL   52   M3   90,5         100     100     275     475     277,12
4                                                                100 KG De Mey             Jonathan    BEL   31   SR   99,0         165     132,5   190     487,5   271,29
1                                                                110 KG Peeters            Geeraard    BEL   31   SR   106,0        195     112,5   220     527,5   285,96
2                                                                110 KG Diericks           Steve       BEL   33   SR   108,7        190     110     215     515     277,12
3                                                          1     110 KG Masson             Dylan       BEL   20   JR   101,5        152,5   120     180     452,5   249,15
guest                                                      1     125 KG Tetzlaff           Martin      GER   46   M2   122,4        190     180     180     550     288,42
1                                                          1     145 KG Dejans             Bjorn       BEL   32   SR   126,6        190     140     255     585     303,67
guest                                                            145 KG Kanz               Volker      GER   51   M3   127,0        105     105     155     365     189,29
NR
ER
WR
Drugtested
Best Lifter
